Chapter 8 Novel isoforms | Long-read Single-Cell RNA-seq analysis tutorial
…
# Separate the 'IDs' column into two columns 
filtered_df <- isoform_ids %>% separate(IDs, into = c("transcript_id", "gene_id"), sep = "-",  extra = "merge")

isoform_counts <- filtered_df %>%
  group_by(gene_id) %>%
  summarise(
    Isoform_Count = n(),
    Total_Expression = sum(Total_Expression)
  ) %>%
  arrange(desc(Total_Expression))

# Print or return the filtered data frame
print(isoform_counts)

## # A tibble: 31 × 3
##    gene_id         Isoform_Count Total_Expression
##    <chr>                   <int>            <dbl>
##  1 OAZ2                        1            396. 
##  2 ENSG00000291214             1            159. 
##  3 BambuGene6113               1            141. 
##  4 ENSG00000305512             1            140. 
##  5 BambuGene19505              1            139. 
##  6 ENSG00000305069             1            132  
##  7 BambuGene18812              1             95.8
##  8 ZMAT5                       1             76.0
##  9 ENSG00000295459             1             68.7
## 10 ENSG00000231748             1             62  
## # ℹ 21 more rows
…
